2035
14915
27828
10176
20926
12902
9582
14540
1148
13788
10532
8203
30753
20984
25582
6045
32632
27862
2125
8674
7408
26679
28371
11701
14378
5663
17554
17001
8259
23344
13381
28548
26337
6853
30272
31806
24575
18638
29465
4791
21113
15726
25876
25340
9558
9814
9296
31160
5593
12767
2482
18106
16966
20458
5269
3882
5493
9335
16174
18315
24344
2056
11712
4464
9419
12723
9349
22782
30689
26378
28760
20005
23529
19883
11811
13725
2562
15013
7435
19874
7395
7057
26460
17008
29097
21869
3638
28286
18783
13623
25589
25210
30543
20046
16738
28935
10251
25224
24987
14904
3386
12306
4290
29388
31267
16651
6504
25383
15611
6368
7352
23061
16623
23397
16739
3902
17648
18872
25935
12647
13121
12502
15871
7278
26049
9722
5056
29443
25336
11449
921
6182
24548
8927
29680
17509
4737
3591
10236
13011
8475
9980
7662
8647
14931
16083
9183
9050
8691
22980
20344
31134
15985
7117
17507
31390
29508
25349
30069
14362
21483
11201
19608
26367
31670
6760
25977
17064
5723
18198
18167
26583
25913
9971
18247
25458
19817
12114
1767
28925
14986
3721
11848
9435
25161
5779
23098
32324
13490
13670
25367
7429
1338
5909
27311
5883
14472
19878
23799
10573
775
6833
20336
16748
1069
14013
27480
6604
19080
12890
20116
26207
3213
19710
3928
19670
8736
23968
20124
9367
2787
10518
1343
14973
3390
16943
30711
5202
14899
20368
32256
28684
25055
21327
1664
31435
17615
20561
2236
31630
3592
26980
19197
28089
25044
22043
11328
18247
3406
18797
23712
26319
8877
9740
12420
25912
3664
7303
31368
18235
28813
3870
6188
19101
18490
22377
7487
19242
14839
18855
18953
31600
66
4583
14395
27969
20536
18137
27288
9702
16172
20081
11103
14883
29929
28737
25983
11759
14023
12691
25722
5104
6000
22345
10005
10424
22384
10614
12485
26050
17022
21688
1496
18474
5516
1371
15974
18224
14736
6191
23543
13931
24336
32037
19953
4045
18032
10156
20680
24922
16635
10446
5092
23207
14003
20233
21073
13845
15577
26606
18985
31179
2363
32635
16065
19573
20032
14649
29078
22974
19380
7958
15862
654
8276
512
17262
21763
10265
18501
19191
2097
29509
17837
21215
30618
8750
31061
28024
23148
12749
19786
24196
12925
1286
13289
9052
12039
14005
16121
20962
32547
124
3205
31276
20486
16975
9595
30445
29439
30396
10757
22691
26412
8187
26539
22403
17151
31162
13605
30756
14708
31653
12289
20205
14096
30903
14329
3648
21144
26435
17426
19299
3478
7617
28020
9778
8333
4185
19469
16263
20215
23345
228
10853
32515
9591
2621
17383
4368
10541
15730
7659
13031
27575
652
26749
10939
29478
11684
1541
21986
1090
4604
13873
22353
13657
10972
928
12762
25034
30254
24660
18980
19025
23769
7380
3182
28176
17629
9764
12803
26721
10547
13926
25212
24413
21346
25676
11448
20268
4833
15685
5020
15883
3632
22115
10891
9502
2485
14
32164
6651
16471
2155
16830
1266
10716
14474
2084
28702
19203
30802
29201
15149
27489
17708
8170
16366
19708
26482
22590
13215
16808
4758
8830
20724
14885
23570
20860
5863
10998
13587
14757
10307
25343
21221
3837
6126
12262
12829
9951
11769
27686
8328
6514
29033
21235
31190
32491
707
13777
774
17540
4953
28658
4241
21824
1367
13140
25430
4699
140
2967
26696
22419
2042
12959
18137
1818
23580
4846
27173
22870
13818
5054
28895
27742
9965
2785
12284
20277
10546
28761
13345
1220
11569
12215
28109
15001
12171
13108
29766
12130
9190
1168
2885
1319
16504
8110
22369
31563
30292
21228
27964
19520
8823
18756
10095
11021
17298
6692
28470
7297
16533
31501
25563
10292
3072
28397
3300
7491
12264
3901
763
26311
3787
19163
15265
11290
15159
28206
13945
5564
6540
5789
15198
29162
18896
3194
9103
11656
9146
10814
10109
23467
27116
9543
11210
2328
27889
15131
12966
2158
25077
26492
1772
21779
26952
28464
31995
14560
145
19341
25941
8332
23762
17094
3322
19161
26655
14584
26498
16000
24350
1524
16125
13021
19005
23498
1419
22363
20150
2586
9402
9629
4932
10778
26274
10865
13474
32614
21698
29046
1480
6539
10393
32647
6117
594
10756
2030
17947
1228
5978
18506
16636
22818
29513
14140
21960
16665
21615
29140
28005
24936
4792
5054
32538
25530
28282
26156
29460
11649
3410
4483
12437
14208
26812
15813
21501
21015
2676
19905
18554
25165
12944
8444
16782
25503
17242
2142
20550
14987
3823
22940
4148
9179
25241
19817
10289
19634
27628
5212
6868
24408
21410
20127
8880
4293
10806
21085
5713
31471
579
27881
4085
20435
21659
2735
21771
12613
2599
29147
14701
14713
18306
31691
31324
77
22100
31029
19775
10588
18542
11544
7707
18115
12458
2660
14802
7345
3456
8296
24603
4529
16745
25087
31045
22455
13556
13178
27563
6636
32425
27468
19702
15161
11425
12664
27413
29077
3041
27067
26877
18959
2427
5241
27425
24986
2403
21096
4017
24220
20242
30462
11922
30517
21468
21915
7456
4175
10002
13686
29094
16746
13271
6217
665
18725
2243
16316
7576
16011
32057
7571
12836
2851
20616
6806
27679
31158
7876
24644
31238
26078
18275
4406
31470
22611
8599
7253
20543
7157
6765
5819
20275
6041
6314
18538
3598
30867
16992
22447
18715
31240
84
16212
7018
21744
23312
31625
1867
9454
3526
6543
2696
19920
27371
5674
14950
11748
28303
14020
9050
10496
6782
18785
26764
22607
30745
30534
24333
27357
23537
5737
8407
738
18216
9623
21384
7119
648
24423
7902
17689
20320
4066
3825
15816
18979
6383
24116
15550
23230
20865
25386
29128
20156
11135
7655
2918
31004
19574
8525
19803
29678
1281
21508
1011
24496
21236
17718
24599
15466
23115
4368
2066
14475
213
4344
26912
4482
6304
21390
5563
25116
17699
6245
15526
31392
1838
19326
1206
7852
7058
15496
22883
17614
6288
3546
29714
13281
30210
5932
11808
6702
27723
14361
26542
31294
22016
22101
3887
2432
83
942
5554
23712
5700
1988
23536
32161
4742
18823
25621
18368
25650
21621
21583
9481
12845
30097
5655
2486
26970
11298
7746
18763
384
27185
10694
8562
9466
24767
31565
5782
10017
21450
25980
32322
30073
12798
11776
21304
28574
27708
5469
12113
20973
18636
3957
1816
7922
11872
30938
804
13204
8912
21717
4921
29186
31119
24627
5918
12124
28144
1234
14652
20514
9499
31215
22267
16221
21453
7469
4828
11407
979
20580
27734
15451
13636
26671
31090
6133
22401
30516
7717
1864
21998
562
23921
488
13421
26828
8250
25278
30623
3863
3561
10861
21721
5093
21186
31878
26088
8143
28678
17265
23685
6404
29128
10006
29079
18388
9871
16974
3115
14332
13489
17165
23603
25263
10602
24907
25858
28009
23999
22711
13187
2419
19733
20763
15421
16436
14736
24973
7431
14398
14893
6747
16010
16148
3742
16820
4475
9149
21736
12054
25493
11786
31935
29051
2137
16038
5277
11331
20869
25570
19620
22240
4950
28478
19257
19268
12413
22454
12124
20234
27105
29906
23753
870
28186
24173
28112
26574
25769
32064
26357
23397
28921
6198
2119
18732
26903
27246
22657
27368
15408
3599
17890
20177
17614
18384
30924
3071
722
32579
13343
20884
31024
28644
24403
15530
11117
24293
5719
8443
30426
25015
23341
12371
17294
344
17730
11446
18724
18015
19086
4433
25401
31177
32368
24097
12708
9857
25159
29285
116
10161
9168
8644
13226
20427
25922
28734
12987
29782
27435
8405
4036
27257
19464
759
26251
16456
32167
10930
12090
16082
23613
32662
218
231
1863
20073
32656
10921
12321
18830
29339
3545
13927
9266
15881
18143
11791
13372
15420
7831
11074
18162
13088
15582
28671
5227
24873
30687
22383
32184
24079
19485
6918
465
19273
18753
19806
5441
4171
32673
9938
18577
7806
14996
32733
26998
30979
4984
5425
2745
31784
10624
29079
7914
8358
2622
6537
4548
13985
5876
21649
3167
21596
29338
12383
20504
29887
17583
6573
21568
395
23744
9939
4743
17751
697
28713
11815
338
32751
4640
25040
8887
11497
13599
24662
21518
4081
14111
5149
26153
22623
21253
26944
19674
17056
25027
3716
11125
12553
4397
22783
11529
1374
11420
13960
9309
1824
21316
23262
12204
25242
14421
5015
23584
3242
18644
28366
1296
5968
21304
8332
27386
17144
3268
21235
15935
22663
4263
19756
6561
6183
13525
7446
10365
18643
20643
12203
29895
13474
20773
1074
6346
7635
14152
26151
20637
30876
23470
23018
10084
30130
5197
10282
15436
10648
6086
13327
23364
23720
14982
2090
25980
20450
24990
17949
17823
632
18275
25866
27599
17429
28101
27324
3428
8177
23152
2968
9317
27798
30884
23873
27330
3183
15573
2062
19799
11029
26114
9005
4769
857
30933
10132
12606
31249
20607
9643
4646
6563
24913
10682
15020
14931
2331
31508
6706
25420
2373
8705
30639
12400
1710
24684
15074
18655
11080
2385
3411
12873
17776
25317
3854
3316
270
32642
6943
1164
5745
14681
22476
430
2791
15574
3733
26675
24351
19922
2028
28220
18240
13179
26293
22530
18629
30467
16252
9306
23071
24843
26488
30219
24585
25038
14147
17872
9385
20494
15703
10539
9323
10942
7240
14832
19613
18804
4291
27277
1994
10125
23370
21274
13272
13853
2477
17188
24033
24734
23623
9273
24529
12372
17150
31027
15300
14977
11768
1605
20765
17741
11806
28103
18277
20340
8530
19905
19178
26285
26223
10809
30484
30942
21764
12348
2694
3073
29904
7599
16632
2260
12541
22995
28375
1091
797
2713
15001
13206
20965
12971
4066
30554
32683
9270
10328
10513
25761
21625
17991
6041
12495
23567
31988
24156
29138
12284
8897
829
14422
24441
18693
1853
6485
25216
21928
22001
1805
17686
6785
16292
15810
15195
1649
27211
16440
27218
19516
25901
8175
29041
6954
19279
3356
232
17762
8353
27244
2225
28673
21993
24696
19548
10493
8051
11526
26520
32445
2678
10757
3969
30068
32068
18503
7339
30273
3642
31228
10738
5128
23906
18674
21504
16910
23784
5262
26011
22614
13379
13194
31924
447
10783
30060
29743
28634
16652
16330
7795
28813
29417
17215
7345
16745
14094
1067
24309
15563
16188
13102
6382
15540
5958
4452
14205
20328
4987
23646
8960
6602
14810
32227
23131
882
4597
31595
13003
2196
1953
24919
18538
19856
19555
9713
27521
20568
25498
16424
5776
21382
17772
28168
14623
24377
17521
26363
25411
29619
8738
30146
7663
18867
32256
13873
31744
15507
2948
29357
12294
14882
15049
23910
13011
21567
16380
8533
18118
20538
9599
1781
25557
20458
21728
10433
22619
28814
17021
29552
10919
31588
10227
28147
1856
1035
31051
1322
18426
4249
227
22378
24506
10108
19998
15280
14088
24337
25291
161
17753
19206
19286
8009
29466
25456
3505
23952
4220
16811
6912
7291
27906
20213
12295
20008
23500
16586
20563
20360
12449
32509
18475
8666
446
20379
24886
16363
14944
25727
13801
2831
18963
9909
20406
3037
31929
23440
31734
686
18265
32649
914
981
5549
29406
12661
7067
25706
21479
21426
13825
13389
9014
9076
17973
8682
3446
16297
27088
11828
30464
9838
981
971
9534
22841
2922
17672
8640
6088
2644
11978
13088
24013
1844
7167
1942
3926
22403
13809
27994
32766
5454
23894
13501
16598
13490
6166
6150
24848
29975
4058
17677
3441
10796
27993
25753
14965
6310
7265
15227
17727
25272
17576
16743
14151
16465
848
18837
6338
32536
12604
6428
32208
1576
16917
1801
14952
22923
2074
578
26883
22904
26796
6429
12299
14668
19861
24255
29186
27210
24348
18998
21619
30227
21193
27478
18841
1252
23288
4436
2256
2961
800
16164
8639
23877
1249
2450
5699
7415
25039
15138
10010
19115
19968
22953
16212
26734
14167
27048
10874
29454
30095
2924
379
10909
28423
19942
31322
26277
15951
21322
1689
29224
9334
9066
27748
11102
21522
18385
18046
25389
24844
3487
5868
14440
24880
2344
22628
27336
2424
14155
14963
25003
21523
22674
29808
25230
31545
25102
23331
13131
21678
8176
9525
9236
23063
26088
2647
15659
27136
26941
10546
3175
3497
8369
24594
20071
20372
17938
1106
28563
28367
21920
9349
8407
31489
10018
16745
31774
9527
31943
10636
29840
20844
9149
25532
3724
13530
659
21552
7012
3331
12623
2167
29915
15230
30543
22052
29791
21122
19168
14391
8711
24116
11936
5962
22347
30384
2196
26752
20869
26329
20232
20269
28715
29665
10026
11589
6857
4503
20837
20102
2753
3955
32638
6757
29891
2659
28785
30906
19978
12115
28169
21802
10587
6783
2114
27992
26559
24440
10847
21963
14587
1527
26057
24989
10196
1893
3758
22761
11780
6438
1621
10738
3066
20393
20291
275
24661
26161
18192
29547
15135
14176
8710
10308
10441
12936
1150
11592
28906
22961
22011
24930
1208
5226
10755
8821
22850
25424
23233
10688
10611
16480
12636
17164
23495
14332
14357
19098
1994
1726
4643
7631
22357
18432
30030
27293
16264
296
8525
2481
19846
5556
28897
20319
755
28681
24750
32589
32303
27387
10204
20193
27215
18459
15985
8811
29408
16068
28013
28946
14170
28644
17571
31616
31334
19083
4698
16717
2256
11573
14503
24876
5194
20440
31880
20440
32230
17068
10945
4540
19537
3517
11894
25445
18896
15665
30093
31912
1532
26201
16066
23186
14142
29050
11655
15380
14344
13402
16289
15723
7128
10633
131
15953
6126
20596
5737
32485
15304
555
1332
8027
13666
18157
17160
28259
7470
30841
31399
12891
1493
15636
6028
22836
19372
10073
30663
15140
24565
1731
24475
23568
3034
13563
2777
22456
26409
27619
30715
25760
32464
28766
18688
6594
26392
7654
22025
25333
13729
7883
19896
20507
7970
23884
32580
11021
13533
31063
10844
71
32227
20256
28865
1620
26636
23140
17826
4088
19637
634
30390
29983
1336
6942
11036
7816
19244
9725
29682
8241
24673
8448
19127
3713
15002
27992
6497
31288
12041
6990
10301
16151
22923
9928
3467
4430
15272
28826
31445
30122
20296
146
1043
4219
2358
23618
15488
30534
1878
32395
17722
28975
26278
15342
10652
21029
31991
8082
9564
23755
29287
3349
12387
22314
30373
13075
27759
15895
3556
6775
20587
17253
12700
24196
11658
715
16643
22946
27173
6548
32079
21225
3674
3337
3496
30831
32352
11166
18159
12882
32428
21727
13105
6788
24005
21528
5353
9561
24552
14791
25081
18130
18523
24514
29287
8359
7313
1064
24280
1302
32003
9993
19149
23150
12233
5845
5791
11098
14586
22405
13627
28654
7369
20619
8606
23411
10076
28026
12304
15090
22123
7542
14112
12419
16542
23897
19554
22355
5795
14506
4331
7286
6673
27967
18825
22642
9727
7596
16067
30087
9571
15986
8340
11968
4908
10728
27110
13242
24607
1768
32720
15671
23155
28219
2191
24162
29483
31426
13894
7904
32053
12393
373
10651
16967
26059
3899
7245
2421
7333
16203
17358
27538
29949
7600
20766
4429
9998
13376
21298
14087
12282
30689
383
4725
7470
19839
9031
30202
8852
25289
8102
19906
26492
22190
603
21150
13896
28059
343
3746
31449
19825
20232
3968
15293
32072
17762
25251
31253
9446
13746
14091
9287
18429
26914
16619
1897
31016
7691
15108
27496
16548
3582
8639
17916
13006
18576
1037
12364
29280
28393
1535
2912
6763
7179
28964
32587
19476
1507
28326
16660
23566
8978
18211
19304
23515
24952
17484
30210
31426
14725
4160
6102
31375
10814
11942
8193
13325
27153
27533
20848
26436
22618
23555
3410
21363
31665
19575
22590
21196
6394
14543
1572
30194
12074
10824
14581
23347
25561
5905
7698
15749
11405
8103
5750
30530
16576
17903
13730
29859
8375
31253
17227
20990
15618
6439
11206
8639
2769
14704
2863
5672
4349
24725
16221
2760
14802
32625
11398
10685
30110
20402
8369
10409
31227
28464
479
22901
10715
21777
13048
2760
29272
31901
23415
29766
10297
25058
32213
10889
12868
11271
2230
22240
3142
8561
20182
11978
28387
16791
4530
26416
10270
8357
2806
8038
28839
24788
8361
32736
18920
25988
12314
2228
12494
7198
7050
19411
12631
30380
1686
3847
9952
29749
28011
4524
13612
21210
680
29230
17971
18353
17
28486
6321
22629
22010
243
11114
12938
25966
1339
4413
7361
12578
31903
31215
23952
12572
4703
31669
13310
13603
27762
27007
15857
485
32579
16903
26696
5355
24877
924
17592
15165
22965
28847
24935
26324
10378
4378
32330
28356
16445
31796
15423
9766
28864
14229
8681
30151
15776
13994
4687
25746
23554
18167
4404
15037
5215
29999
28980
11190
1023
14070
18339
13004
31287
25968
16933
3742
28002
21649
14861
1860
17312
4900
8567
27455
27473
8088
9764
28449
32592
7565
9752
23547
29423
22562
20981
14475
439
7421
6421
22818
24284
15383
15210
599
24706
14413
7447
2670
8882
29862
14282
9605
24091
27237
17888
18564
28296
13262
822
20162
17701
30649
8144
20088
17009
472
16428
18406
13314
5063
10084
6983
29180
15064
26374
29046
22607
13980
12468
860
6068
15409
9594
27681
6757
8783
16114
29198
30879
16913
11802
29252
14552
6275
19440
23327
22464
29935
30674
24935
21498
16359
32664
23612
14743
10002
28015
29632
26967
14775
22388
3714
6046
16907
3348
10669
16184
26426
15910
2037
972
25655
30661
25405
16418
24388
4847
3336
15380
11840
28895
10662
18005
5044
8490
29211
11749
16540
19868
10446
22352
9973
2000
11510
27050
26891
21649
22724
20298
29055
4340
5712
1609
26
3377
22341
31929
14165
31045
23373
29861
30372
32586
28986
11213
3462
10129
7929
17182
4942
25221
23607
8691
28590
21567
19408
20750
24584
15848
8188
2388
1397
8402
5433
29260
18321
30550
12278
19542
6157
8043
10500
683
25330
21259
13501
24856
14262
19014
4337
27002
30464
25378
1429
1272
4411
27450
17450
3331
8668
26386
20974
26639
29556
29499
26821
13838
14453
6954
31462
18609
1220
16857
17734
25438
21506
30747
7364
32495
10394
23744
25113
3376
3978
25197
18557
30743
5362
5944
23322
22721
30047
18950
27954
8753
6100
10660
24847
15303
7324
14760
29102
18306
3282
14598
27434
4085
30381
22129
32234
23051
652
20087
6282
5754
19653
20315
29834
12040
4141
16049
16825
27520
28007
15548
7263
10867
23277
392
14893
27055
2528
28614
31205
23169
19343
31082
16841
32170
17353
12806
22725
802
29667
10980
9820
27023
27272
29926
1362
6531
9283
25630
5406
30841
26830
28973
13838
12173
12568
21596
7224
8702
25112
13948
9509
20326
26708
4990
23611
7603
48
10961
23022
18157
14071
6526
27046
26278
28843
31238
8815
25408
32396
9719
24163
12002
4714
30032
15575
7223
6828
6042
6984
17132
21276
25282
12547
12264
5752
13241
14744
23882
15545
15562
23036
11812
4640
23998
11393
27129
13062
25009
8054
29686
22625
16051
4765
14835
24853
13086
24401
5929
9217
23738
14196
9905
22212
9618
1818
16833
5459
8851
17655
9637
22076
16362
23945
32127
22455
22299
9476
19390
20849
2786
31746
28511
30488
1226
4839
16614
6054
28814
30741
795
25967
20787
23765
9093
13033
3041
15616
1704
12349
17541
21873
23550
30097
26665
5419
13750
26131
270
30025
24622
14277
12430
25513
13618
11275
27317
11351
26354
17654
20377
3515
32453
846
15997
25475
2976
31073
32425
5198
15444
16014
6663
11805
24971
3984
17789
23930
4992
10124
29454
11110
30594
7641
27056
11780
24870
21649
32491
6150
19279
17371
20022
21211
25823
11766
2577
3989
11578
2054
17121
31388
23679
9119
16272
32277
4997
25874
17377
16143
3991
4730
24724
16755
24048
1924
10557
24234
19189
23042
27620
31500
2357
15151
18013
9740
19489
8640
13670
4388
21130
2223
31106
2433
7391
20166
28056
24687
19236
750
11082
28290
24242
10549
6423
7562
23473
17569
15919
9524
1621
12727
30745
26240
14299
7625
28167
4583
1858
9987
24053
1096
16842
28980
8068
1686
28462
15197
30872
23619
23968
16892
8114
19563
29065
31253
2063
4545
13565
28933
21374
23866
25344
23814
1538
22395
27259
10881
22315
19715
9468
4631
15669
28952
15665
878
3549
25459
290
28859
20743
25771
7217
18196
8465
25953
29907
8051
13557
23601
10764
29833
28705
3668
27820
26953
5142
14101
12363
27695
28610
14841
28677
17236
10398
19373
758
19763
31111
15791
15476
569
862
22717
21519
782
2910
29182
20810
16294
17216
9969
30486
774
30480
27673
27410
28631
15565
23141
5253
14764
451
26465
28439
10003
4521
29727
19794
10333
29562
24291
18141
3885
14356
913
20082
12995
5777
22231
11172
3334
29289
2074
21587
7251
10052
22050
25066
5640
13984
644
7775
13774
13095
4051
25832
13738
1486
13957
21118
15043
26797
15527
531
17137
13217
7233
20626
24330
22179
9351
25755
17899
7655
452
30203
3144
7092
22534
4333
3380
21510
23690
20754
20335
1509
6630
20530
29555
11907
19193
17584
30269
8728
30866
3023
21724
22142
17891
7079
23738
15244
6052
6373
13485
15666
519
3141
27325
19289
10591
29649
4787
888
398
11223
16742
22518
6195
27563
28869
20803
21905
21025
6307
17588
24638
15817
2118
7459
3984
27881
19630
4418
6343
8507
12197
25539
25338
17259
7051
2346
11715
16975
28638
20333
30377
10724
4747
25425
18770
11788
18936
20355
26213
9482
11214
20857
27968
11705
11399
8198
29791
32143
7099
32704
15495
4693
6442
16658
27318
17316
20104
1056
29898
28703
31244
24158
11507
17010
5559
15854
6106
18957
10085
9918
31118
25505
1429
9565
17715
11607
7415
5026
23401
723
698
2811
17277
15595
24468
8342
19282
12583
32654
18226
14862
11512
4757
29378
388
26809
27072
22982
6756
11879
15714
28777
30500
12319
18383
31067
14765
19035
16623
18540
6086
11755
1668
4845
6721
11702
32059
27079
8935
11310
30324
14680
25893
25748
9937
27409
15731
3057
31104
1232
5000
1488
19529
25086
13119
10428
24662
25192
18503
20092
3014
10974
26765
11281
30704
21390
22891
11628
30839
8222
31629
20719
18194
7563
2471
16042
12312
16836
5593
5970
31694
26885
29149
14081
8305
19701
28150
26544
2306
20862
6808
16244
31956
17264
30936
9851
29654
25813
17810
16582
25505
25362
19292
14244
20800
4802
26414
7922
13251
3410
11213
29204
29570
3164
20476
25777
4658
7877
21346
818
18345
5013
1594
24314
8049
13977
24509
16995
25358
15034
20303
10363
23823
28188
29803
29827
16599
5110
26960
9507
17193
52
3177
32623
12149
20686
29821
28058
1508
24806
31643
3452
28197
20900
3267
10949
2805
17617
8276
8447
31345
9526
4921
24901
3867
6323
17619
6085
3502
30750
10150
11511
31650
26849
12483
7834
19069
29778
20983
27763
27616
14545
27320
5317
6733
4259
23499
23695
25273
19089
10678
24456
15061
20544
23018
9179
12316
22095
30380
11682
31645
29235
26055
20004
1670
12754
32243
10959
11124
4320
1796
14324
16508
26621
4306
9029
13817
12683
19692
27150
22035
16465
22267
5942
28948
17361
6136
25845
619
13929
12301
15955
6780
4396
4940
23652
6445
24958
17682
31557
1329
7281
24121
25301
3090
19427
18945
16179
30465
29011
26044
1276
8285
14983
28475
23873
13829
25568
28155
21834
21598
25720
783
19982
17955
16385
19405
26477
29935
6749
17208
25395
22156
26877
20017
15309
25337
24058
24156
27337
24381
26868
22483
6927
2286
27054
9613
17121
28288
28774
10381
24980
79
10229
28106
23820
9834
17835
22242
15097
26405
6888
8573
12755
27229
9338
31106
19862
25993
13242
508
9277
15494
3429
203
22016
25375
6715
6410
21838
19294
1370
16452
12937
27796
25687
23126
26501
12074
17697
10274
24254
18726
15766
29944
12891
22397
22755
11973
24294
16411
32412
21753
26057
10419
12191
27194
7048
3654
13480
21706
7616
18805
6836
22969
11491
2951
6423
7882
26032
8250
15708
24358
5749
74
30944
16067
11268
194
27693
26770
29303
11013
3096
25451
9635
2459
31897
18873
3421
30141
15725
20453
8559
12703
1133
17795
29016
23424
25004
32063
19399
1394
2388
18309
25046
32233
24381
27635
25095
5382
8274
19840
18175
27297
17828
9577
22020
4377
32075
223
2360
4315
21761
28018
24979
6323
29308
59
23714
26325
30095
9164
2561
13994
24575
22745
31897
16220
7974
21923
5018
3872
4938
12328
22327
20294
12475
32524
25893
15618
5806
7493
10449
25336
14300
31881
23395
24457
28890
12921
1911
17376
10295
11402
3222
22459
21591
14008
24182
19961
786
16617
31734
13800
16140
3873
23000
13644
28370
16491
15676
22319
2490
22659
16864
31596
15991
14404
2073
13049
26494
12500
18064
5367
26908
7569
15293
22651
21844
12474
15141
16154
29050
24286
21075
7223
31120
5381
16792
1292
15716
9631
17538
30073
29541
6192
26141
30976
13153
30351
40038
9749
29495
32380
36215
44303
39874
55612
32152
10447
33352
38597
4704
6463
35199
21288
43111
3673
29742
12593
31481
44889
38375
36435
17634
57632
21135
39915
36812
31979
47574
33617
19402
30885
26803
7042
62880
35815
55343
19099
18746
58337
61734
30356
20644
22610
12132
35243
10655
49231
15654
38516
46126
42093
5436
13855
64162
2618
31815
40615
54533
14369
48383
26901
47650
42954
27036
17328
30501
24725
2999
63343
58534
47559
56477
51504
4108
8300
10536
43030
3759
21846
10207
18181
26211
32450
26159
5061
5123
11752
20734
13603
19208
21767
41129
58094
38152
3283
29695
14535
27103
17641
15211
19475
52090
42268
25842
15232
5833
54589
34212
57326
32137
24674
2319
61353
9199
59980
40657
47951
42268
48767
3149
61486
27424
19286
53562
55101
27857
63698
47148
37262
63515
37710
6231
33650
60833
41111
52219
13331
21785
41874
49752
9064
16630
5440
24415
27598
46089
35946
10642
40096
3319
61455
20259
2306
59295
63671
37438
47903
32188
46363
44842
48803
20740
20760
22518
13307
4295
42187
46124
7425
34100
28390
2115
59976
14293
43031
11460
29374
40139
20831
19617
9751
59827
46793
3326
10101
8424
5351
36359
3858
11330
60708
46327
28300
54846
60186
22976
45330
23132
40781
37252
56659
62084
25760
48129
13098
54060
17304
14587
34293
17312
55101
8940
53427
10254
2942
35044
35233
9785
7895
32029
37284
60337
43503
57638
4948
3593
23217
48733
18284
64760
53305
49692
27620
52735
5946
11597
24291
21409
13282
41311
21836
46843
64584
13821
57588
14616
58665
45443
48367
39185
44236
56714
64335
7757
37960
18844
63974
23445
16785
30279
2823
59079
22624
2873
21117
7926
47562
47685
45572
47785
37277
41736
40870
58380
9891
36383
21241
9722
35771
9320
62424
9191
20654
55073
57588
3537
56123
36665
40298
52076
11306
32538
21090
34769
17840
35930
29187
12431
8923
20632
18869
56605
49379
37016
63572
58721
13577
10186
53203
2733
47140
35986
50557
48978
5371
19453
56878
57944
48007
20071
61988
42838
40996
26484
39549
51564
39572
50112
51907
45701
5634
44723
63112
57576
61704
28690
31669
5237
18805
10205
52936
28748
43898
64049
29036
17609
50310
11959
34047
40060
37944
32348
34103
39174
56399
61101
8321
20157
11631
2819
16342
46960
37268
33339
19156
14978
49586
43954
27159
16218
17408
6536
35939
22197
18902
25540
8383
21096
38158
38036
10674
35248
26673
12165
8221
35982
42376
21126
24790
56782
15492
38197
38238
13492
39612
37101
25463
1446
51405
57890
41346
18217
34802
47251
24736
55103
9444
31726
53713
10383
11291
28189
31983
54425
62057
64564
20577
33147
19224
54824
52909
54640
49249
55513
33582
6780
49806
38529
53319
22741
40695
61562
55459
42030
54053
6876
37980
36918
12702
48442
17930
32923
5122
61504
33600
17327
58083
39754
64871
40909
29623
50429
28496
47105
28693
20497
30006
13603
59381
18366
770
24234
8367
31611
29916
31975
21160
32012
30353
53418
5735
22904
9680
7920
7176
55621
41644
20520
47614
12959
22033
62059
49181
51962
63600
47100
17175
52261
13315
31722
63304
61938
26155
14281
13654
31596
57729
40088
50728
7103
55377
55563
29806
46705
26154
62406
47332
64002
41201
44070
53830
47802
17076
45723
52878
21981
52647
7660
15069
51766
6425
31114
39153
18840
9064
61511
19206
20817
9512
34806
53541
40886
34021
52953
11543
47105
35240
48723
62695
56902
18142
42772
58209
50063
17659
4495
9479
51158
31801
63457
48644
39636
37387
15344
52307
50068
10030
54393
607
56320
58802
54084
46673
58613
37625
60183
60550
31928
56269
34324
56977
8688
6374
23314
64199
5809
54694
38225
49453
4690
1842
37126
34008
24076
3397
24975
14917
32859
21998
24549
51060
50863
51917
56241
28147
62836
61970
55839
10528
37563
26344
921
42692
63054
55070
48400
58102
8123
61952
6911
13066
63848
31677
63769
49299
9206
47571
33862
49930
8392
22819
51406
15127
7911
7401
13372
24574
11656
35097
62745
21247
2096
37198
61628
6193
13683
40124
43607
10662
44374
4091
32201
57604
5282
45312
48370
3226
64941
58876
25319
17160
4197
35004
14281
42925
19122
28516
25968
7282
49515
23217
10260
8631
59956
64012
43639
47669
41647
49677
14289
13588
37971
30140
59045
7155
62137
45037
15609
44194
56968
47839
48108
23784
24760
6356
26217
61147
23522
43731
63740
63920
42954
16173
12803
60895
36089
53725
53449
8544
62495
34143
58348
34646
38967
63215
45481
35470
16150
16575
37080
43464
12840
59454
46663
61544
45324
668
47746
50988
2513
13861
37024
13198
49282
13079
17949
34028
43672
47760
23300
13206
42402
11676
22045
40595
54433
45730
18865
6209
48954
54192
22179
29005
17821
52460
57030
59920
63183
35608
38833
33113
63026
1388
49342
62040
58893
54781
34575
62057
5435
24523
60459
53623
40597
7420
59807
18414
23788
57279
16617
50340
26240
40055
25597
9156
34515
9418
53640
25154
4942
36246
3615
37215
18433
11271
9114
24728
33246
32287
62766
39647
27148
33960
28706
2579
48411
56866
34306
37299
47729
23963
4722
9259
45169
35020
13073
38617
10537
50381
24777
55490
60616
10976
21119
63339
63610
64414
942
45627
47782
17352
45914
33204
8457
33722
7656
33343
2607
2635
36109
61793
47439
13813
19751
37308
54018
47163
28288
57783
62301
56767
53492
50481
45713
40096
48489
47975
31808
45435
7664
7595
16492
47668
620
44327
53522
46018
46003
40854
37891
17983
1995
25678
38977
7607
26102
13195
10597
41190
29815
2851
40635
3810
10034
64943
2198
26298
34443
18923
47382
61495
4015
54911
62936
54407
22588
32644
26999
45653
7325
11475
28304
53194
61846
35894
18378
24352
52069
33918
54397
63887
31385
20887
32212
38517
18690
40336
57691
48703
1779
22737
28949
26419
36209
48920
17216
54782
14651
3345
45771
10872
35686
63378
12438
56734
32379
30950
18335
38220
6812
30418
11487
27043
25339
38367
36161
5686
34341
28038
1434
58308
17592
6092
20550
21932
38154
11247
33876
4030
40308
47078
27817
59879
8131
7113
3874
39296
37606
20180
22220
64185
3872
63579
63288
9260
42371
33858
40870
14932
15922
28652
46258
8386
39132
44709
19346
29778
39075
63580
31025
34606
12300
241
55907
37096
36273
30813
54150
19308
51193
19076
41385
15462
43653
32133
44703
24039
19219
21882
7734
6460
992
50037
52864
48305
1570
17812
6903
41980
46595
36723
53088
47556
44064
12821
39426
48325
14718
55754
18758
53391
55829
24656
9852
18950
10938
55487
31264
51589
7858
36479
36660
25258
29504
38746
37930
18234
34472
22962
45475
40336
36069
9251
52835
15773
2091
9660
3087
46899
1736
52068
26120
59375
32478
34162
38521
7609
46540
24757
45018
694
54167
57815
4977
56743
52927
45644
6654
7025
47668
20537
10213
42601
13738
45236
57273
3023
13144
8418
39292
8010
5300
54476
7461
64376
48916
46260
11830
18937
30708
41677
53125
11060
59848
44069
5099
20232
39169
33021
62490
6768
22654
18008
62252
1182
49704
20747
47038
29752
16228
25769
57549
60445
53092
48195
44284
49818
23033
46215
38724
37563
19958
11477
39173
50010
1933
16912
9646
6127
6133
23374
42922
32339
43460
32149
2981
31254
51705
32741
15870
43603
61040
52124
27080
40737
3591
57708
34691
46125
25498
5680
40625
3157
6892
40702
11652
38497
55159
17331
38418
50692
39917
54814
60845
11034
905
17312
37140
48542
52433
57447
27231
1810
13317
22474
15285
9642
17585
40890
50494
25202
57333
33184
38850
6729
27068
59752
33964
60000
15623
30501
32655
27992
61743
39561
22296
6386
55572
41851
57431
62261
54281
19705
40092
32774
23214
17046
5853
45437
38158
12170
4802
17169
10291
61527
14819
24138
55550
24342
26150
52279
38693
64003
48146
45178
54849
42144
2507
4054
60436
15336
30322
13830
50295
20925
5334
29214
44894
47187
60064
57494
62407
1307
33778
59160
1609
32582
2810
38320
12543
25631
18562
22235
58251
64537
27090
11137
15109
52294
64774
58522
55195
8070
766
5383
62961
19135
2609
5035
53431
15642
21386
23726
7435
17941
23069
51471
52409
58753
40832
14548
17525
60775
50939
24577
44576
21207
35191
5549
1600
21826
11871
55547
55990
40797
26841
33987
31998
18273
14628
49625
26984
3496
24514
44899
44126
4837
44396
27482
30038
61553
63801
8769
39514
59814
39358
61909
62288
12922
5268
22141
21144
11343
54567
38706
18334
624
41482
52702
29763
5601
44498
51438
22445
27272
3410
49997
2400
52723
13339
19901
6019
12390
1957
14199
19536
38615
24998
40418
15633
19525
27311
35783
26035
12324
39854
15413
29903
26565
27069
62388
14607
55991
29356
26673
12880
52964
36543
62020
40419
32954
18094
56920
10522
48621
48122
44930
1026
27050
13992
58344
57836
38986
46205
34488
27859
42708
18409
1514
43454
57656
18564
10262
56820
36304
13801
45530
20341
60174
41486
57794
29786
31111
20807
2653
58618
56565
17730
4779
5204
27190
17678
25092
63660
11622
12551
37383
16234
4402
50226
16811
32682
27890
44961
12875
20689
57850
34225
43303
61874
61621
20716
39197
34161
5330
57454
44942
51903
57132
33242
35343
32350
10507
60112
56135
34579
45807
29031
25706
55588
62625
62292
55266
39799
19305
10710
39497
7076
7233
48120
38123
55966
17933
48077
22022
29877
56309
30709
18575
28591
44463
52653
25282
15111
13018
63519
31
26571
63809
38637
15206
20338
19561
55814
13088
24160
37007
38250
32062
40118
1177
23231
14770
57094
45183
25203
32877
21862
47685
31006
43102
24888
7031
13512
55490
7408
24279
11544
6851
33435
50126
41417
39119
36738
62561
22558
34549
42753
8811
22318
55173
38610
38941
13021
12371
22155
50190
43897
7136
53155
64422
55395
285
20747
20132
14065
56109
51070
23020
60878
34582
42358
24823
30183
44901
28060
40539
13167
34448
43256
13384
32705
31719
41177
7755
54845
18366
32383
53793
39006
64044
9651
19984
6410
3912
2661
49408
5590
3730
5977
42157
16641
56255
4575
22717
38168
23656
63418
26335
32568
51820
4480
42963
52086
30243
2403
52393
21293
35391
38846
23242
17106
33376
10689
28014
48598
56858
11249
33795
57951
50838
59222
23410
51233
21984
7702
61045
60685
6503
9329
17404
58576
61279
25168
13988
62381
30650
51932
30075
52597
46164
4636
47619
9953
50731
16561
20273
54532
20386
36313
36480
9006
61802
34984
24823
41308
11747
42686
46574
2940
61715
58051
33361
1526
60939
44736
39976
13622
30505
52685
13322
15021
16856
27332
49695
9051
45538
61146
11522
31386
7476
14493
47214
48451
1453
22523
39546
17271
23405
14020
561
48140
1263
41260
611
55895
49555
59331
62836
56143
38929
5294
33017
8238
60649
42001
22244
42781
41442
48000
47441
14988
35128
1227
33486
7822
21231
49639
36095
60205
43452
49308
24742
36583
28369
54751
19124
33748
50859
11298
9868
38076
57464
43185
43941
32836
6012
35059
5195
29471
4533
1569
39751
22126
62977
23817
31132
7741
12616
56092
13488
4407
29745
64868
46908
56984
43560
4282
36886
17741
23174
49161
53286
22034
51611
23739
26280
21885
7498
63877
15351
6046
23811
45653
58482
40787
43616
19342
30631
37091
33135
7073
59644
4534
17462
8659
176
25114
61773
32049
55862
6691
23670
10673
54070
41253
52776
61369
45574
24507
35570
53373
38597
32299
46590
35995
41120
49458
31601
22388
48194
22590
39971
9447
10915
36423
52560
20328
52672
20172
41982
30447
60807
58125
8090
58869
14534
39705
17836
24928
54806
3168
60263
60113
526
60301
39193
22597
20359
10602
36126
44840
13032
61039
56901
31936
52769
2316
14125
59447
37789
39342
22328
53354
40092
24272
17662
6389
23677
22296
17392
34791
33951
6274
56282
36169
21454
12560
29531
3726
14850
34423
32839
3087
39276
37599
11663
64341
25260
32564
60005
11278
6486
16618
46314
51204
42456
14145
22513
7917
48368
16278
577
3199
40406
22265
29818
25470
57326
56765
7751
54000
19062
30446
53830
33751
49477
3280
61484
55759
31706
1877
19951
13246
28817
34721
50456
5235
23307
2857
46846
44454
34398
4115
42959
18490
42420
12584
43202
38187
19682
29848
1963
47411
61196
56290
26017
58073
43645
10407
31590
25577
20025
57620
45414
51419
57345
52461
20494
8036
45268
4754
35929
42806
3738
4243
45825
22068
11546
45070
48428
64003
62463
61819
8464
51558
23064
14720
62369
17478
25045
51404
16693
23563
20008
2757
4411
57066
36259
40447
63799
60724
9291
12002
62571
9356
2911
21009
18471
56255
39563
18854
13181
12873
19891
60607
10203
8224
8849
54625
27703
142
60503
7227
18737
1460
8919
8514
26892
28726
36
56153
12704
25487
14996
29298
51157
27080
52538
31861
55213
13081
13446
63632
32834
34789
7853
19498
16176
10185
44961
38556
62382
62479
46660
60476
32614
17759
31861
64153
12110
46440
59295
34739
25372
64103
55250
20376
17668
15940
16889
48179
63465
36799
18038
51649
46154
20137
2715
34914
14490
31276
12030
45436
25834
22928
62609
19282
7462
50749
13523
36645
44339
53097
31146
5045
19836
11334
22272
3923
60698
3490
33441
60771
47942
64395
57208
21553
62492
36907
9219
55333
4435
36768
48217
15752
42387
31492
30143
48828
53615
34037
53436
28169
42521
60776
15354
39403
19711
39614
6498
44801
42089
9232
47869
57559
31302
59147
60428
51237
58798
52048
6231
35096
35084
1649
44901
50014
14572
54465
11921
63864
51046
11304
21849
36949
11187
48365
18103
32190
19794
3434
3712
63289
21537
53718
26767
48391
45234
34354
36188
35288
60563
14561
9627
48924
46120
46750
32478
46666
1345
46993
21518
62309
43619
19899
18901
32390
11208
26302
60882
22582
18753
5511
27806
29085
48491
57663
23410
12118
35059
11136
37098
20357
48353
33054
29922
64077
63932
23041
10942
39079
57738
47359
64631
27900
51106
58238
61001
7939
2602
44548
16846
6762
40950
18232
43566
61428
39392
64707
17213
49755
50910
58466
15588
30571
51607
43331
5076
6395
33155
29675
14901
55385
1546
34693
25187
17978
59900
16611
5705
60047
60749
19181
51288
42148
38180
945
22925
8617
44452
41347
20573
26726
19207
57892
26842
51447
37688
8018
62399
46293
49278
39812
21750
48287
24036
29767
41526
18207
56052
48041
46268
49438
8913
32655
29151
16697
43668
32388
12387
54494
9411
27922
23221
11091
43344
13000
48603
33391
29363
47769
63664
54071
29733
25941
53997
13866
20147
2463
37825
29358
37106
48986
29144
53127
27908
1740
18
46003
55300
51258
99
38373
24688
33674
58518
12178
19026
30775
23223
12333
60631
36494
3017
28947
5821
7255
33555
40829
63157
58146
5321
20305
48288
35690
64186
8669
22283
29992
55869
10068
35926
41463
61933
63537
57004
64764
58242
13711
60729
52263
7448
28575
60064
47572
18452
46799
40805
49232
1935
50218
46082
48056
58193
7187
25670
2697
33847
44040
51879
32856
14641
5241
37534
20173
47669
35998
8336
22990
31196
13141
52082
10593
20457
10191
63973
59380
847
22380
36253
13047
61958
29029
58241
7517
11331
50825
34669
47529
28915
50599
37274
20144
41414
31393
51202
59896
58849
22973
12117
31874
4078
34768
34802
8311
22737
32755
20209
50452
31804
50498
17325
40594
31640
9529
36363
23697
2805
46823
39932
12478
7826
64960
22326
49284
51584
29502
39368
58947
28801
20748
6575
39977
11236
18686
26762
48099
58376
9949
36368
23069
39256
48555
38548
44970
59438
25596
49551
357
49380
13479
33010
39141
18937
22672
35639
30943
63709
12581
56265
9740
60368
17794
63548
33187
18514
47146
55877
52970
51989
36698
24895
26553
10059
35129
56507
35249
25913
40847
21526
14943
18223
51608
63686
53810
33522
24448
19589
38874
17758
55671
1384
56157
26742
9902
62979
27187
16028
60610
767
30806
42588
27058
24734
64434
64100
24280
46117
25098
63753
27375
16819
9090
51958
5368
22960
30667
26751
14138
19675
27434
43806
47109
11565
39722
6528
14656
23039
63706
55418
61627
18448
27316
26469
57161
9859
48048
24805
14217
17435
29170
64983
59597
46778
60063
31658
34138
51921
44564
45154
52062
40650
43099
28500
56546
2450
52434
52358
1926
22196
40287
29886
40523
41592
24555
28604
41359
16370
7709
20938
16929
37572
49152
48908
45103
62498
19926
58779
50189
61158
12165
61319
35990
22865
49601
61596
52433
336
47570
27393
35801
43883
61927
36927
16677
47924
63666
27786
63744
38988
17565
471
2392
29368
19319
37230
33045
34391
12913
29728
41860
47468
16425
16922
32705
40104
27718
61578
5597
35366
51879
49030
27500
33106
5931
48584
14041
3276
47233
33470
1658
55303
55312
37153
775
34912
15768
59533
14263
40718
34606
46602
37161
52760
46583
57325
1975
13502
716
41443
26085
33850
36603
58486
2308
48918
16864
11749
54001
51381
28
60963
8259
17091
59819
38710
26676
30074
20532
3206
18967
64062
40826
46292
53132
30067
50583
4839
61034
5068
43377
54349
63363
28401
1552
41331
42690
27351
57480
535
21147
56861
61798
50752
51793
51669
35481
14329
36405
6811
2273
10988
22033
46769
21579
30555
20453
30013
4713
11606
8234
19967
19189
50171
27357
32478
463
1143
58370
664
36849
52054
31533
46956
6831
2226
44687
36355
1391
8792
58543
31837
45944
56356
18764
12150
30925
35615
53728
2854
51916
50674
61156
13042
10368
17533
42153
50688
47745
59341
20223
30590
5175
64885
17352
20170
53825
50940
56905
63351
21456
43085
39737
19859
61896
44793
19728
27266
15440
13018
41766
660
37478
47591
41454
56633
40543
41860
38565
27602
16317
43268
18950
21635
57575
42488
49376
24543
15805
8691
28857
32961
39066
1257
39187
32237
24202
48445
26990
49521
17018
28041
34840
29949
56216
62371
57324
2670
2416
22847
59091
50776
11656
46128
32583
58329
1842
48865
920
53282
42992
18607
7584
34009
37476
59199
61074
62174
7937
2193
56240
23573
29286
21873
51325
47083
34907
7914
9803
32675
19877
50689
47413
48493
64805
1529
64043
28074
47809
44593
17175
40267
30147
62980
382
62841
42622
24910
63741
52975
32960
48436
30360
1086
51501
35430
15496
24229
21794
21958
43394
16019
16006
29977
54297
3780
27855
26383
54183
58341
21388
32404
17116
7565
20536
59909
13367
22417
64062
1534
49512
465
64229
45086
25163
16592
13344
43626
35325
27114
9840
51150
27767
1469
50466
16254
37808
39194
37297
53040
526
43988
15940
49826
27768
44287
34737
36100
29453
22947
64655
41252
45775
55325
56960
32503
27901
54232
40985
32658
13484
31830
38420
25146
48475
21181
34550
57783
34205
35254
4347
63853
45668
12039
54288
32707
25310
52047
23719
21019
4414
7972
7017
4031
40860
13259
63661
3588
20383
44498
9855
32536
16875
20290
28781
54140
6559
23690
27593
954
53817
17311
49616
11762
54675
60187
63781
26688
5605
27507
34933
15764
13570
22110
16609
38502
35166
13401
17484
2559
56494
10656
10944
45474
24711
56309
63017
48762
16849
36357
38336
39958
39771
11436
7374
53386
22630
3767
8250
18929
9643
5362
3818
27698
2050
29768
3305
28521
11048
47127
8590
62553
19241
17198
43626
38920
26825
4092
11480
28194
46758
32562
48492
33209
7739
52236
60801
60163
48163
10659
50168
45184
63583
39764
58586
4113
24190
15552
32904
39015
15438
13127
6913
53833
43540
10690
12706
33118
6897
40101
54914
24185
1661
43490
28426
56843
41728
44825
29412
33969
9242
46665
26477
5080
55692
37352
42012
35255
49913
52121
48426
15991
14221
5586
21979
36380
13466
18069
23205
56592
62250
15910
15793
52711
37363
59615
17852
61884
31830
40006
10113
23051
36625
60218
16003
56259
10790
31821
8603
13235
20732
13917
57405
47805
57457
63192
7962
33422
23041
30519
48448
63398
28940
13796
29163
28544
25083
52634
51735
23988
37272
53745
12470
35690
64147
49364
36323
1462
61096
33866
58682
63834
22584
64477
6974
42196
52973
10474
4331
19656
53122
23098
20068
8448
49679
7518
83405
42278
90850
73603
41313
75210
97343
16863
95752
83786
50628
60690
75778
83826
3780
36731
53796
67601
51518
65851
53165
68398
30065
3431
51687
31238
86388
80896
68464
49025
761
51372
3837
6168
77909
85242
60374
21826
30355
50625
52003
11786
39057
81026
17213
46128
24803
10399
80188
81525
16178
85624
37752
43825
76833
26810
59601
7807
51757
94390
17824
75599
29864
6287
25807
67828
69625
92019
8105
44069
15386
73548
66734
68538
11673
26249
6257
83206
50917
38895
12502
28882
15963
7882
21739
11941
71649
16941
87482
57237
34230
25070
8723
52891
30198
36343
78406
23608
46967
47626
81721
84335
38492
74903
89554
81733
92415
22154
91816
88646
56274
49752
44404
69089
85759
9238
61487
88039
79448
23676
16912
46111
7445
36742
42984
28959
54403
55503
42548
52194
12248
9043
64758
77498
4889
92131
2184
92984
37110
3468
14299
20498
89683
86311
80095
37381
68748
47208
98909
22185
98483
41781
27356
24298
27827
27874
45990
47280
4636
70179
94842
41041
59514
7593
16286
39598
67353
41722
55568
89190
92291
28795
31364
60479
72181
15706
41326
64510
13367
71822
93096
909
27766
10864
92772
70060
45719
27979
92250
66529
28117
13753
83150
52003
4898
14804
20899
82855
76611
54805
15989
23212
6790
70218
59082
21586
53246
97383
19690
94099
68610
49583
94990
62475
60327
71677
19000
3772
42633
66321
90256
37711
83051
12536
98607
7139
30519
76095
75256
53689
15736
1439
83508
79963
15165
12587
29619
47651
55774
23671
4776
87570
9170
42234
6575
5022
82122
81739
11838
29958
2453
68576
19932
68784
17230
10105
15043
97629
63007
97972
73276
55097
75069
44867
93209
12418
70114
63711
51874
37252
33004
86381
34727
62581
33996
64214
41724
29127
87073
19493
28218
33982
75795
72708
80414
67865
57062
73262
97360
58290
72870
86614
76858
73778
76381
18694
2787
58689
34009
81080
42110
8386
96351
41683
96249
64770
12474
49056
16758
68997
73463
35012
51038
55522
51145
84196
61889
93962
60130
16427
39309
54615
14511
71771
54433
51382
82222
42249
80125
59887
2742
22780
56560
82769
95894
97994
38451
98242
23883
82709
50120
83196
57153
65419
48214
85973
67766
20587
40866
53510
57628
93640
96329
95865
44932
73414
33571
76797
21755
28306
16373
86619
75339
87574
55368
8378
81754
31069
33528
2235
33285
67173
9817
6870
26910
1211
46635
39887
6407
57536
10740
22211
15593
71743
97432
67402
9746
40443
28914
34670
17041
91083
75914
39926
13863
76633
30365
77085
97051
10457
29613
32695
59208
10716
74243
91107
63696
71581
33642
64900
75184
91243
38214
48412
27977
47790
10789
60332
86809
70027
34141
46166
80987
75437
38297
12753
8788
20680
32611
5518
26775
66661
33893
42487
4894
27103
91988
51856
30589
7730
94600
341
93722
27224
84700
5613
18306
67373
73225
78901
62920
96449
93262
53401
43671
85827
80948
53508
41925
83011
45254
78993
26752
88812
13159
2359
83170
64106
79345
66717
92311
18963
47546
9362
74183
85913
9031
87404
59981
34257
89144
97368
67
68901
31041
47342
16759
97657
6904
28515
94256
92705
11584
2042
25901
23204
22257
15643
50002
84269
64064
87634
22092
45827
65657
90319
53987
832
13395
40081
23152
30798
16358
73531
92592
43057
8609
12074
75292
80196
23423
62795
57131
98414
55520
80539
23060
56258
37042
34141
45871
71838
3059
60158
71098
77434
13906
41896
17992
20094
60508
20766
80475
82807
18461
47427
92640
76166
34422
82185
13234
30623
48720
66492
47292
77833
56485
60809
97689
26152
10551
29371
83564
74797
48926
54270
28869
67948
20136
1768
38884
90761
24189
52413
24280
75803
27087
11112
52796
76957
60341
12332
65972
80897
19127
84020
92441
83066
70156
87756
81030
58148
89567
65945
40360
27053
41529
21381
31578
23500
18577
60959
31712
24755
64233
80805
40716
55992
69821
58937
14098
55688
32393
12657
73443
11754
589
72183
42814
9402
43478
80437
1715
4903
2810
13471
15017
94348
52433
80164
88566
20585
81723
98496
46997
74163
64412
50009
5933
78061
1627
7122
4677
88294
79265
88809
85793
64862
82202
78922
65130
27530
28004
6954
68378
91503
24006
195
82795
69263
79686
10849
742
96155
47294
19207
677
48924
48492
67986
29625
12007
50343
31388
18374
38885
30063
78784
11249
36900
78770
76721
48502
20575
83299
88151
82620
68074
60410
84894
46504
2247
7003
25719
75829
52218
96193
69908
77910
7842
21466
29486
89140
43231
44844
17901
42368
95709
39517
32163
18612
70505
73553
11812
71681
91588
83750
38447
65941
65251
16527
16505
45346
68186
27917
38231
74708
93277
90089
88866
83557
11930
10839
13507
90798
53062
3407
71697
56151
29494
94940
71009
5327
32538
15471
24114
92872
49225
25833
75924
19830
71476
58586
23239
79543
71683
627
82351
70354
64745
51215
23327
62930
25078
45729
44757
147
18966
39736
68317
55624
95781
72274
10441
88399
5691
93154
65501
56384
78325
31158
98174
89142
42440
68495
35638
7878
63874
2831
14599
705
4279
25845
87424
43244
34512
45093
92042
31726
62900
12690
66595
54288
65800
36385
67073
37628
96254
96592
66517
39277
44538
90697
96708
2627
54210
31429
67632
11350
3711
36732
51576
32515
33353
61001
61544
78330
17738
61329
75315
72915
91138
47341
506
63785
93521
8987
48373
77798
62191
49987
71523
34960
81601
70165
73921
79037
4164
63593
6312
52627
93352
74052
46842
60991
31088
1453
68045
16732
82578
75134
56527
74120
15688
95330
49141
47234
39445
19857
14012
18210
65372
32934
51654
62974
77635
7177
26218
30690
71995
42035
51515
12084
22513
2163
4203
66690
93966
31465
2010
6284
58605
28545
54084
79825
22594
16948
10497
86452
303
96871
7271
16697
2185
64933
43046
94331
69000
42531
87135
85931
5030
35780
32666
74067
69574
2094
14847
43764
81080
98027
63789
72226
5742
80789
85678
16266
35904
1115
94979
71587
58570
63624
36557
29202
89567
51845
42711
52171
92861
70627
68653
73140
90519
48715
19723
72897
40594
65636
74506
71740
46515
57110
94425
73785
95248
12701
34744
73579
496
24505
17822
22426
67296
13366
41171
74019
7452
98786
76752
7212
31858
10525
48373
54243
84697
29607
66768
69233
83981
82707
16930
21139
22450
11219
31164
13029
61569
88958
76670
67959
94806
10557
53856
7956
43375
23889
87567
65294
47386
10115
84041
47806
47695
71661
70910
34196
49490
72644
25487
24906
80945
33914
32169
54339
49174
74666
33287
56512
37101
77017
76239
55687
23772
82039
49573
36069
92737
28518
56877
81360
30317
40775
29534
63370
2542
6441
48975
51498
69975
20416
50177
90179
9604
73657
32999
89892
53337
53254
23691
63745
82702
21760
42008
34524
82525
17376
76595
51594
85982
59408
47265
49237
74395
91079
86939
13723
20505
87206
38010
38163
83462
58270
81841
21994
9791
22935
1629
68112
12818
24080
41501
88868
28608
49781
20990
96689
68821
82837
54257
91965
89428
53360
92827
6687
41010
62676
59972
82580
18140
69873
89440
21815
94189
97220
13734
8481
81020
29438
48856
53315
14928
2118
67885
10796
66070
25592
66709
56169
55142
89339
21411
91597
30232
51682
16259
10621
12834
93008
27125
59918
22675
39848
8510
33889
83659
52723
89540
28517
81471
84925
69493
54737
77559
33474
29303
1433
55843
70338
38590
6742
68336
14231
11705
40229
90848
84572
60186
20104
41166
59148
90465
63855
95934
31518
56169
60746
22356
37385
18121
88901
96062
17683
92886
28714
52951
52804
73964
33856
9878
73544
28426
69141
19693
66840
85898
98677
56763
629
42827
87070
56185
71450
46819
50612
80881
86122
32264
71773
94204
75292
13817
80707
5894
35669
92054
74760
91124
8848
88486
25579
84553
5824
93711
77792
8219
94128
77285
66900
73687
63085
35209
51885
26417
51197
5622
14181
15852
22038
21053
39568
79469
7132
65204
31745
55539
17566
49033
38864
46567
4529
88987
89945
67957
17469
70057
28184
21903
91265
146
27387
7161
34072
63124
4100
92250
96436
68281
41299
87724
84238
47240
44536
11343
18987
57062
82701
49360
4820
11098
52858
43212
6053
57147
84169
34654
40498
44895
48736
41850
9809
74583
48994
40517
34490
5921
77981
3175
78662
89315
69224
96422
78396
80960
17573
80621
82161
24298
63140
33711
20739
82579
22517
90970
27018
80109
33451
34470
56181
80062
33766
36696
21998
23708
42059
64542
80613
60854
19456
9378
58692
79883
66884
79017
4936
74997
84137
30870
55337
60850
41704
47409
5187
25617
86939
91559
8181
53139
92550
45449
93820
32994
43202
75595
48236
6101
45478
77078
92524
72637
40706
47423
7928
14163
62060
83702
73786
14643
65965
77969
88542
89784
24457
47119
90496
25132
31108
38243
73663
29779
31575
69313
97048
47839
48485
68865
59052
71251
15547
38156
44837
32134
83879
19003
56252
5980
87147
27372
64065
82201
48153
64934
59696
76783
24205
65164
89449
64803
10293
96960
75137
91824
47732
31448
26952
27194
74292
20783
27908
80665
79390
50300
54188
23361
65771
78239
97399
94076
78881
88820
59673
89462
52944
56958
40996
16829
84675
7327
16432
88422
9396
24706
46658
75576
64933
79538
11616
70219
537
33552
74038
92807
7191
17339
95617
93541
41377
52098
57769
41773
52708
91792
94318
62864
81831
88152
5435
22050
10526
4019
50146
67827
82003
91891
94326
88024
34228
24650
51391
64825
43736
11822
4905
46130
73908
43396
49315
10406
78663
76738
7594
20670
19133
45450
81185
53050
2532
1310
96838
37247
88624
18447
11301
59985
23582
61292
97698
19990
52671
98120
44579
84900
52153
20903
60053
80053
29680
58825
76366
78843
15410
22338
73922
53834
8221
11378
12916
55152
42012
95990
47838
89712
67634
97695
70668
47101
51179
72841
16426
94013
81144
19229
27945
61694
94020
45705
17399
3408
14195
38961
19969
78587
70390
12798
76101
80403
30797
26014
41048
25964
26594
14460
18352
45630
63328
54319
58200
15380
71513
73549
41608
27998
18214
74317
15671
1905
76858
84484
42437
55967
97220
57268
66807
13109
62405
58619
80736
53103
88783
36858
86847
89017
8902
1749
35924
81317
49082
86883
86144
71555
2795
2150
42597
84441
68189
61615
40090
96001
26963
76452
66219
38144
72627
40763
82017
11713
83585
75228
95713
43841
37352
40801
40688
1016
62029
83610
11343
86679
13000
5769
12823
18947
70983
30809
40092
526
39022
76841
12477
94402
24049
80889
23384
76603
16469
20919
68484
67200
42957
1206
12957
56748
67055
57757
46756
34605
5570
98730
60436
21630
19726
72913
47925
78053
41205
89370
21335
90504
51795
98196
91198
84616
748
34546
32805
97289
61907
45345
77644
40487
90378
55317
97445
91977
39641
22261
61322
59351
79430
71750
93032
74278
59048
92078
74475
37443
59591
44098
11366
71550
52230
52021
72804
74829
74466
57329
32106
56516
26402
69576
53163
38624
37225
35680
32337
69184
77155
95206
62368
70671
38148
12898
7167
17377
73422
19224
47183
33468
34757
3641
70560
22726
24833
21273
36843
89257
73569
7086
78655
44173
69529
42192
77094
93796
46010
80525
60049
51097
33964
71769
50741
52052
12493
872
89749
92382
97893
35186
828
75858
35164
76850
65636
8317
75067
31100
13653
58716
5162
91378
47675
85190
13265
73680
19221
51976
16040
14570
48434
34692
69420
83974
65143
38988
13146
35916
98230
33805
66270
33418
88004
86695
86751
84419
23562
60577
31272
96164
3023
38493
79056
83778
86932
17379
72911
723
35584
64510
68162
3432
11426
69697
62373
34400
15266
9881
54303
58207
42059
902
33911
42460
81246
8530
22133
36259
22109
5135
54902
3132
85323
21430
20922
97635
67282
24785
98870
24839
4
61941
39637
97590
40845
18912
71960
68772
17214
60765
76731
94667
57385
59824
2657
18543
30272
66409
64185
70366
36520
31267
30365
62574
82787
66833
98492
40182
80915
28376
93829
59613
62404
21882
12370
92404
19777
41979
26155
5804
938
2221
36281
45261
80685
14821
38928
69534
38034
6049
1387
63042
55665
37449
72325
7534
2339
45766
84893
59960
69102
75770
69773
92819
56170
61243
37412
51752
97918
90413
90105
21969
35964
36843
72441
27696
94615
65104
60065
16520
26497
64274
64392
85544
47023
65365
11774
20269
83067
71858
2233
35882
8489
75946
39528
69794
14122
31026
34460
12352
81433
11983
30276
11543
74003
12382
25241
5270
5143
95568
41744
43176
84797
58029
81505
34107
69123
85219
53205
9187
61390
23909
58671
94004
93859
14986
33145
24239
19712
9960
95678
50899
13833
52232
89830
74272
90141
28925
68697
2807
72982
63542
3268
81748
84809
48686
17633
9581
61652
58113
9924
85933
94778
48878
93920
88506
23824
43725
63302
24346
86384
53030
54088
91410
36539
46772
34882
20572
97228
94950
84495
3224
93377
85959
69152
84093
75692
55737
13722
6004
96788
32876
85000
56775
3515
59378
62927
74230
10344
88263
73637
79574
19680
17347
91081
25830
33511
35994
48433
8487
69975
87905
73120
3104
20824
31054
556
11074
23188
64619
2640
44631
47698
41213
57096
23495
84254
15620
93393
54945
43453
84968
96337
82829
15245
92629
71495
79127
71343
71216
56336
75974
86099
27630
94055
20608
13478
59397
50531
58752
58297
24179
3861
19955
46032
19507
46895
53753
68778
46546
52434
50881
32634
2169
67221
49836
42953
66648
56498
79002
52847
50196
68102
36314
66122
14189
42897
55912
8090
31483
87041
47662
94257
70552
82561
32375
24295
65969
73655
92310
48738
57099
54729
31448
21054
47507
9480
24191
41182
36835
81928
730
27227
63196
66182
55463
73196
92968
98369
89356
97244
25071
44686
24691
60854
53335
33011
8633
59213
33011
96248
12965
66085
55916
39802
25046
71043
77359
63703
50818
96702
5774
98851
81099
13939
87841
98652
11269
77227
67927
67731
3848
35377
77340
59362
4485
34755
85095
24252
44793
10891
46684
67150
30987
54064
43230
3424
62408
38164
47570
13388
31892
35950
44157
82377
93503
56647
15182
26924
60506
24740
91829
36299
16075
95029
51839
2525
30008
50018
3585
51350
88901
52569
45197
68677
98667
24645
32576
70436
14218
13264
34821
49095
86652
28234
34550
93320
51523
3321
81840
95167
9656
33735
24109
77156
53340
27443
42180
28756
32665
75868
34986
97515
76122
93696
26823
28467
58878
49208
76634
36462
80090
24125
97610
24672
58291
16756
77545
25629
43096
60519
31292
5008
1540
72596
80352
38531
55556
59789
95
49798
93238
89201
47815
79246
25126
54835
59494
94936
48231
83032
30378
25687
70018
16489
18968
41910
29966
5319
43820
51628
69955
26677
51161
10697
87646
18812
30514
68030
60199
2275
74512
66233
15429
42511
39124
72899
27681
8012
17492
92529
27656
9712
52145
88872
97424
6673
49861
51327
29980
18338
14226
96426
29364
26000
23047
13043
10099
2739
57895
1563
81060
92122
21795
42855
28568
50348
98525
50826
10717
77797
56704
21243
31649
77503
70432
79743
42850
62375
75716
57895
53551
7432
49680
61111
69290
82758
5828
60075
74975
26287
34431
65788
25254
49936
57637
77961
55111
68889
33008
40098
45340
31014
51971
80072
18986
30932
87146
76689
66990
87532
35591
13053
23198
49414
98203
16698
31585
96750
39794
77559
32251
39838
74219
66435
25706
36844
45486
67446
17801
53174
97046
87829
89106
61160
16677
24919
25899
58857
45753
87672
33178
13592
39567
14785
45338
41826
21691
84001
90855
6074
19398
98120
4916
97789
23700
55347
61295
22114
53678
66609
13228
55510
26427
50254
31596
35358
65782
25503
36613
88300
9074
73860
68578
43348
81415
12018
26230
73811
51440
21712
74016
26519
66077
71728
23226
73019
69795
22884
72800
63314
42686
58876
26411
44014
81789
22593
75789
38405
50950
66844
23806
38872
81935
88382
20885
77675
66747
82295
65741
30221
20418
55937
90418
53424
15872
62469
1136
88477
72148
54032
6016
51109
3743
62792
91936
56096
94652
59375
97460
74021
81741
53941
94892
37928
70910
75569
54111
35258
45251
52774
89952
70167
49885
87083
12316
47756
29413
75710
73934
14962
27226
63313
69158
54454
12967
27189
90916
61843
79327
91724
98285
63407
44889
18042
86117
11727
85028
37706
33072
16995
52921
9574
30145
21452
87867
13439
59755
38876
78946
30362
79368
65665
92638
11973
96178
78255
97276
89889
40829
73251
53507
52619
91449
4694
81156
38304
78290
12664
2180
67421
52656
36165
85411
25525
32275
87889
53485
59077
35059
12735
19724
63505
52734
2946
12455
21742
711
38593
7093
64947
82582
8827
62449
37637
36483
63844
8986
59300
53315
69567
1117
18893
56930
23662
5204
49073
92042
55470
53367
47588
59427
41672
44035
33724
67346
50852
63776
56654
19984
25540
26759
23412
5825
41303
24225
8620
36445
97585
56045
22358
62250
17046
5719
26156
64450
80702
49767
16121
69147
48944
91347
54922
24057
37814
6173
7941
36319
21073
32015
93937
34870
59575
4262
46022
90423
31545
38391
48852
4674
12966
10395
3851
55434
25108
87668
76764
50186
95652
68052
74837
7652
7740
6937
17478
4976
14371
12954
41723
39150
87698
77845
78916
30621
33962
49488
64801
25378
18967
62802
51860
21855
63889
88291
26447
169
91889
54642
39502
70108
66325
38244
67391
41349
58009
5938
32951
76447
50241
58873
39255
2975
43627
85313
19488
82539
62834
25241
82191
70807
47914
79272
32391
53060
15247
32742
81591
82925
91500
44827
6109
79238
55633
55685
18202
73520
38134
97790
4197
39098
63054
45316
66677
88369
66406
56817
24680
39550
25466
52847
94655
39611
52582
15867
96447
59441
70662
26825
47039
10155
69015
39312
50027
15502
17865
18771
75871
29019
29147
33413
383
71790
33152
1289
84509
5419
67838
25584
33219
8793
97597
51936
11637
16341
254
89072
70635
84492
10449
91634
6738
79964
53403
4075
24125
47401
851
92639
36839
82331
37031
55032
40944
54943
44869
20262
58404
558
65067
52575
74761
81055
65890
11004
83167
3393
73453
94159
95579
40571
44472
55076
16369
33022
70544
55209
33463
38536
59169
88069
55437
78192
10433
79964
43057
37122
11516
57824
77294
26149
13686
17039
69975
51610
92928
60474
52655
63541
10370
8667
90934
44571
27852
73887
36712
22353
34110
75211
37324
67819
24292
89546
52202
76445
43744
21060
43070
46674
56281
20731
10093
34321
62140
58016
57169
31209
9283
4729
81085
61578
81674
16698
74383
992
11269
72429
29663
5281
55690
54292
32161
65366
33502
66668
8091
80211
31888
34133
98538
34516
61845
14249
13135
4848
31226
73734
39726
96401
27540
31782
54189
43856
10143
51270
54877
88503
28253
98704
18029
91292
91512
11891
49067
29266
39411
94712
7835
91956
70705
97102
59870
24304
82180
46096
64051
50295
34495
56812
91335
89788
7229
70580
96172
55886
50403
3864
98641
21460
67851
61669
95175
54109
38814
69801
17217
19074
98293
55891
64773
52124
68492
63567
31374
76576
76994
22062
27172
14724
75263
32644
18877
80178
29253
57311
77787
2851
31054
82985
3554
4481
93983
91451
38292
59329
21357
41939
71556
10660
5968
43290
63661
47619
62666
60309
73684
73413
42826
91359
52769
8265
15395
96060
89717
60794
54619
18796
45762
60966
56919
11412
26481
4408
96837
12339
5804
1194
17900
98885
79361
50354
80156
58570
89153
96578
19295
49581
71593
30351
72195
69894
82697
41642
91256
88694
48936
95573
20744
23477
25484
9239
2910
61542
1921
76955
9746
19720
62618
56587
77125
87669
6409
42981
18707
86459
80192
8942
46444
61732
59407
32218
32186
81817
74644
60199
496
70694
78898
75839
45660
83076
24318
30767
29329
88627
51805
97755
70613
84346
43993
40383
26128
3758
95167
90817
33239
25291
43325
69591
89516
84449
67879
80244
30538
69304
51037
42159
75831
82104
22351
46532
13297
54836
21790
29399
98442
39363
42840
96565
36544
25036
7184
21960
37439
59897
72620
66636
23502
83054
45756
87450
72610
34721
7207
91057
14081
36800
70600
19242
58548
79614
33497
64106
72317
97132
33162
96289
64115
20499
18319
57140
56577
95479
28492
42299
58455
21706
14884
31358
72698
61362
32785
9917
22994
92330
54835
1831
1792
89620
97041
75553
56339
73354
74775
21271
39356
88803
81236
10067
86146
17220
20798
25561
42162
86652
12552
54535
46585
29482
57010
34883
69987
25960
33352
95018
66883
65144
44827
72544
26718
80500
80151
85555
55613
80305
45089
35838
24278
92972
94822
89320
43960
86885
21721
77659
83560
69308
90623
93015
78089
39707
6953
72912
63286
54565
68086
69136
61457
15950
37861
68352
71636
76110
37516
64288
66549
7518
89749
26085
74650
60510
54389
88712
12831
40608
88974
88296
46224
8615
76302
18778
96412
17147
10744
21915
73301
67283
82235
39859
90395
46137
3305
56711
7011
81044
36525
46543
66937
14186
31852
29153
26833
26180
54852
62938
13589
24587
41379
93283
6414
68305
79293
38384
6042
90110
74905
93709
23338
67068
66295
17488
76432
48942
71875
8355
42149
16038
67367
6420
7600
55609
1295
38834
84134
52549
83951
85044
36269
14886
73709
35432
7595
70792
46042
47472
36188
40957
51998
30324
29634
68365
32463
59235
2939
67245
93274
47436
29700
2336
14871
23489
87413
54300
9349
15663
98070
86558
84453
62177
25993
68954
69885
96104
60800
50176
9334
74770
58161
73915
70354
47960
62688
73800
21109
19211
30952
51612
28888
56206
62992
44860
30084
47349
72538
39748
75730
15650
23424
62652
56567
78299
74875
1169
79452
37244
33531
26943
75397
88710
12528
89986
81584
7480
87660
55470
97501
15617
4737
18733
33616
90996
47362
90995
17782
39432
36059
33869
89594
40666
75468
2988
45349
3464
62250
36170
19842
61506
11799
65619
61493
89603
30568
65068
39755
60122
68899
22260
29817
11023
78481
6249
81741
22431
46757
88553
28653
72975
70845
85854
91659
86529
80348
56736
89335
21608
62265
46744
79205
76082
14829
41422
95823
85422
21026
95768
58988
21245
82485
19205
73304
83923
27475
46721
11406
32490
95313
45559
36267
22352
35207
74592
76930
20225
38455
87030
81906
70996
23058
76627
18541
79730
5891
50251
38892
12578
12282
36597
87858
76793
4040
15721
76802
12079
5376
4093
90710
9045
60496
27678
38042
88923
24966
26399
31000
39165
85321
10824
78948
19518
54108
29495
50857
43693
1168
60046
5542
79216
76798
77775
47900
87288
35385
20403
31208
46275
34778
11640
38573
94276
45943
52917
34430
67826
24783
26377
58374
64321
89384
48091
56238
46347
79242
21067
4170
48313
66097
90426
90642
65911
86541
38454
3357
85805
84338
41233
80293
19756
46347
24367
91858
44918
92989
29765
88545
54418
77657
72369
69238
33193
44061
80985
64227
46731
56555
49528
83741
24365
71640
6787
84399
45640
23897
6990
38041
98384
50491
54418
91954
45100
5620
73376
38990
12334
4978
44847
2414
15552
42631
75649
75696
87462
49377
23215
55365
30514
61737
19086
71486
11063
43754
80062
57011
9279
37158
77451
47958
81776
38078
76794
87873
51011
60886
17557
17943
10336
93374
19071
55619
82913
39698
87327
32484
30725
30726
9311
47018
21591
51788
98240
6531
4024
20679
64293
15485
71952
10552
38807
962
37236
47616
19021
19936
44252
21047
58281
27209
72700
91913
9239
2911
52103
30267
9985
46660
13879
98312
79071
54617
29484
44865
48560
18860
57783
64963
15415
79538
20486
30221
80971
39655
49289
17403
76370
51778
46199
20471
68372
51471
10319
50142
65715
10996
81977
33970
42083
31748
85733
40947
26873
98217
39857
55777
12061
25805
28260
29887
83364
93294
11016
45906
65389
59157
29835
17899
95081
49910
46805
77836
50142
83336
11535
92917
87074
50649
6234
85408
77085
78888
55539
18470
84660
90785
88344
77835
27175
82128
48320
68338
1896
27039
21366
79293
30508
26688
22359
16584
72229
14799
37157
72095
71183
79915
57682
57496
81405
45706
85552
98229
25274
28884
22843
65721
86441
32131
66760
82707
11443
93792
18046
69789
35359
61221
57939
63949
59920
5167
77715
19211
50608
52408
69127
37718
30667
54233
78550
71818
201
66475
50389
63395
37915
3066
44774
96031
81273
13211
87225
6250
43955
98789
40270
67438
73891
39443
29743
95287
70830
70535
58375
93743
63724
62934
28810
49602
88892
9295
3907
21161
40456
17652
79316
23100
10267
32136
87595
30204
24794
39209
53500
4718
65373
17836
61815
92232
21333
18266
2806
89866
72774
11637
10686
12303
89698
5238
6262
63315
57705
59727
17515
40200
54642
18421
6485
91664
18112
50351
20063
43669
64514
51286
12202
82553
46052
48510
54774
52633
44487
42908
71992
83921
33903
63560
63241
45246
21883
24005
9226
34551
81872
76746
26419
35026
62125
61517
26488
57724
97958
28422
41340
35830
64066
52830
96380
3833
796
58532
78992
53256
45778
63573
68704
8222
18538
81261
83675
56476
61953
15372
82228
90211
56656
62255
95858
98763
20990
96579
46380
36724
56270
96580
51097
18804
22532
29411
12461
94320
6427
12308
64013
63400
68473
84880
36466
41221
9903
33406
36179
28288
96247
97568
74617
77499
93844
16134
96246
4468
95385
78700
87800
4996
66160
17979
68125
35718
72166
62563
55853
92906
2771
6606
5215
68380
12478
73640
50351
50547
59897
12868
72489
65648
5890
27450
56991
3026
36641
36119
2496
15689
19485
57387
50024
5809
62635
79584
74179
60209
14306
95512
53565
6016
34950
81582
96193
30088
34013
4708
82485
23841
33347
7274
92637
54646
64474
61549
39892
95580
25127
90909
27227
8663
14063
58195
4940
59044
87650
79172
16011
7548
21228
22641
93700
15957
88570
72966
6687
71236
37653
68792
59128
19713
70333
16747
12917
21980
15160
89969
76974
92042
61359
60941
94150
74255
10278
73989
24226
73621
47215
71717
65702
98897
27029
74037
29036
17600
76551
10041
24816
4684
76329
61785
44497
73083
13755
87983
11578
54731
37612
72415
34451
55436
16935
45493
62638
56052
54468
19647
11361
46234
34261
39824
21509
35957
85896
92391
36485
91171
88841
36211
29519
46617
20289
33604
73796
20320
78182
49327
28277
87836
7863
79318
97612
41024
40252
7790
31417
22731
96941
98545
43571
90564
20116
18677
24616
87820
51786
7085
54691
45016
32215
61832
76754
45446
28263
95184
23881
86893
36579
12629
19198
73981
74650
32353
35371
98477
64826
8537
47468
25520
63479
8954
43027
63387
6866
11900
56217
39256
86994
5833
18146
75274
51874
47773
44760
31355
77575
97298
55337
89299
34238
16341
39802
68866
91344
75359
78707
74704
97508
34999
98203
38458
57719
88381
10876
22965
20352
28059
55305
67907
38312
73017
13049
28938
33712
46960
16797
74931
5466
38681
35742
53309
43992
20302
43379
93409
83803
73062
65756
97137
94942
28834
22636
16878
24929
29280
23470
34041
44749
77371
4618
3435
17717
65107
93818
97020
1797
20466
15252
28086
59104
37150
90088
75608
28121
22713
1038
37894
27329
21451
56846
59489
53337
93948
24473
19774
21500
49210
22881
85878
64033
13220
16032
45097
38917
57409
43248
78650
30830
1579
2497
27270
62087
76910
93257
90362
89029
34838
23400
84129
86407
29994
49253
13298
90448
16561
4365
29130
38311
88088
82715
73225
68659
4145
17553
82207
53881
36824
22818
73607
90780
80221
46508
53835
67323
62698
65705
46066
94747
52154
2226
30638
81639
76343
19590
75479
16774
88531
97192
98956
1747
89136
25667
84670
26421
23525
73385
66252
43598
16769
87249
97381
91594
49272
34039
80634
49468
18615
29242
19080
76353
82456
33102
36569
87189
97197
28751
28595
74097
24472
94217
58709
7718
48646
52345
22499
32569
13657
68420
49543
9393
28331
79750
42363
72025
3441
49455
9200
83531
33112
68685
91664
69175
18336
8438
73347
95468
39251
13453
64109
28086
55359
63560
15493
29646
87684
94183
18050
25423
29445
49927
75542
67895
54847
26226
39998
5930
52487
33929
3983
77540
93308
77159
42760
11470
9124
37892
96473
83813
26646
77382
38164
53466
27612
64620
81976
16839
71540
1327
70529
30163
97341
24806
26230
51929
79787
21915
1442
74228
97571
69981
69083
26955
84903
3509
78389
87312
62772
70207
4761
92981
6311
88165
98845
38695
63977
94062
72582
66822
72956
50484
89631
42542
946
22144
38706
46056
88669
11988
14375
80014
10354
62346
45510
58589
85311
80383
8320
40221
90257
9063
78265
58791
90056
3011
34126
7364
32027
64850
16649
32616
87600
48407
35943
79410
32809
37518
1425
69381
77103
80250
34077
95258
23148
60147
22702
73464
51449
70785
16678
68053
5961
78082
2782
37761
53200
77369
93172
12814
56682
4851
10776
32790
71204
48446
14162
22102
38490
81644
48393
35560
30004
11570
37483
15285
38569
13196
18991
48785
35648
21611
67558
373
96626
62586
77025
87985
34445
63895
4485
13512
10319
40443
77364
16245
53535
6522
29703
45493
78062
14480
40992
33334
94372
79245
39870
56166
74600
1490
42245
11733
51255
93646
85853
21612
18026
23243
93462
67731
45780
83395
50246
96684
64065
77142
16112
63225
63098
90548
70481
2820
72508
89813
49285
11216
9510
58370
20756
49209
46560
8366
78020
19900
84705
42762
23023
30121
33056
8965
33977
69900
93015
26702
34685
17469
74821
48892
2765
19123
70527
57306
56449
21424
13019
56895
90671
43621
14697
64122
6569
41340
68461
44639
62234
49848
33201
91224
28856
54044
21761
22472
61539
29582
64343
49313
3593
14808
97470
47531
52639
47867
46446
96179
97861
25159
5831
70839
37830
58192
4150
32208
70620
61523
96876
31732
96857
21122
91266
35580
26410
84614
64026
3083
10266
86786
59779
95066
41598
95162
12379
60048
82539
47834
80622
3001
87467
55029
21026
77330
5627
37236
3621
70529
46610
54772
290
12929
85707
94331
31959
90384
63525
70374
12652
11043
64569
54086
8682
26321
6160
17371
49648
18335
6871
34904
53578
90479
92645
96784
52232
88114
75216
8275
796
20918
13122
11337
85840
32317
81916
12350
1492
52393
86514
24888
79845
51468
11834
34254
4954
16562
97067
68245
90460
95637
84514
3142
92566
15607
55134
84839
45504
35355
76203
59599
17989
24389
78092
52919
5361
7587
20114
3276
93567
3181
19449
90350
53977
91085
79110
82853
24959
87658
98602
48231
30585
26666
78656
48934
95491
64011
65166
55872
29029
88643
13212
60108
46272
6806
51638
16959
66961
22847
41960
38838
2001
92267
83658
71399
44311
25980
56032
41535
36454
14659
34791
60826
47243
69501
57365
18427
74763
72368
91702
44593
21499
32240
65692
52415
13299
47956
3577
86071
43926
65679
42521
55223
16119
931
44848
71270
30272
72617
71186
74326
54506
31035
41260
8501
68561
27328
47851
94079
56245
76075
72048
4223
44579
24934
73880
66358
61223
40402
98508
57339
45909
21297
5311
53187
64953
78004
85016
14033
47166
81627
93230
64176
25310
91333
65506
97062
32827
9842
97097
45992
44115
888
54029
61038
58295
94790
17701
86391
10640
29836
86371
5087
12831
87556
55079
79472
47102
93683
13465
52239
78762
59022
92485
12158
81653
52257
63719
88035
35951
32755
12483
89782
51429
90700
52676
41776
92576
11446
90109
14756
36074
71633
55938
35196
13039
12921
81137
31628
45451
45045
69101
39288
70779
66419
95056
95923
38007
81668
84035
1883
20252
19191
32330
16021
12141
80552
34192
91738
20152
75246
90040
46866
10854
89750
32208
67784
63597
80332
53616
12054
64191
39451
61482
71277
31807
56260
62466
12756
18633
94745
17976
35966
85077
67657
51541
60186
12466
81117
56016
42243
23396
56715
81538
51426
89071
66403
36295
18141
90303
38504
64546
87221
60172
77299
93906
63352
40316
8892
73557
66356
40940
1479
6957
1659
70472
41988
10113
97632
91975
28745
81704
20134
17954
51067
92873
7581
96543
86432
95053
44928
9410
31417
85143
4012
41075
73365
33034
15212
88525
11183
48384
72263
45770
15169
52092
94392
82234
21527
15384
82421
45122
21575
8388
11888
22064
7685
43593
50717
94876
46342
7853
2023
51492
83758
18672
41351
14603
90795
46711
90487
32461
55481
64327
81064
46184
64772
15740
36796
34488
2102
29224
89864
7387
82980
64617
97815
45671
50918
84075
76810
50495
26447
47251
96410
24517
64791
68413
45425
10707
71395
59951
41704
50917
59904
30587
15213
95900
84005
28706
36324
89593
83299
37949
76448
17450
97731
7231
95474
87274
25210
11247
39923
48942
9847
41193
39260
3510
47771
83915
12089
71492
31478
43712
31789
80133
52437
25493
24295
58325
59320
56270
31988
31660
86180
7325
26333
50346
44963
90646
71840
15789
38428
92942
34530
65654
76982
39400
39286
82337
84541
55449
55745
80912
83213
69026
29882
21357
47322
64744
24525
57489
28931
19375
64774
90161
20275
94742
31494
90502
46767
728
55878
37115
2878
21239
36398
60992
49829
66020
81278
9210
3162
55263
18582
68646
44561
7706
16967
31065
87254
38785
61651
47817
60296
32020
51043
8754
65696
1686
21814
88067
8005
70382
71043
877
14544
11243
39473
98104
90698
79485
7704
72452
39522
45426
6506
786
72579
56808
65763
43146
95299
56123
92774
32013
43635
67491
11345
36044
48023
72596
4391
31282
87093
72988
29530
42089
49835
85096
45046
81478
54524
6342
58779
42123
10126
6851
74565
2051
73269
21940
27399
7808
24861
56280
79014
22021
89343
18804
12139
13030
75582
16847
19943
49528
66389
94573
32718
50307
20558
57768
60699
91898
1505
32251
12595
25983
57929
62820
92037
90359
55520
34070
82990
43364
44954
23073
30171
12737
52616
54405
51077
51392
64694
12438
54536
13155
81705
80222
75322
42771
68510
30037
80036
60218
49365
29199
21072
73013
29725
53392
50897
55376
4094
24921
10208
83892
92827
60724
27881
90217
81465
15540
75839
46024
47181
73749
9225
58485
92854
35147
67090
15906
48982
45872
46963
14613
77398
44462
55219
57687
14698
98233
23864
67551
90500
15246
41557
27789
73822
82860
86692
10521
5135
97627
43528
59744
30874
60296
60732
19810
78084
91388
30259
10323
62171
95559
24518
58518
49277
70965
42536
28081
53307
31201
3098
17714
33643
95812
59756
14726
55405
75588
8641
62486
53462
69661
80012
340
75318
52739
86055
14514
69975
24920
29830
42083
98464
39243
63580
36226
89537
74697
30373
19546
68392
27948
61167
80955
38856
70858
53885
66835
89800
5377
8379
19707
90583
79742
97954
18494
66065
5643
79069
23425
70501
78374
31017
25609
67002
1164
84888
13187
69670
91644
88607
83293
82890
75028
10309
50162
54371
67777
81388
7574
77044
72615
39360
82084
49414
72883
24652
39978
49652
34873
65286
2014
37184
7207
14204
73912
30987
46830
88605
85618
75067
49479
42355
97111
84670
79415
5810
59190
37897
94329
22326
94834
96040
74563
69481
66730
71135
45382
76866
29767
43282
22363
48847
31876
63143
97505
38089
96386
55375
38551
889
21213
6729
298
54744
77956
55300
11910
69028
86527
46294
74579
31557
98751
43881
58192
38743
2295
45194
39032
93746
13009
48907
21480
90148
61490
5447
22720
18859
31747
59127
40422
51846
43096
90096
89397
96559
69429
61076
67899
72312
80262
21793
19134
61377
48846
73408
25684
41806
32417
61202
86986
86970
34996
36840
45566
52589
2698
49953
11182
27014
22617
3682
23001
69555
59738
27199
70837
57337
60178
28818
46419
72752
73535
83470
74200
30665
87255
78784
76884
61331
77524
9058
9031
13075
27953
91985
89968
1330
8648
96848
50828
85373
35101
27843
56003
4682
49106
4667
50666
8598
32745
46563
12309
76527
73815
65295
46263
15655
2362
42865
75968
14263
41710
22809
36863
23115
57083
24136
30889
37699
20431
33261
44429
79914
92152
78060
25957
8349
96273
18050
22333
77728
74492
70150
21163
77190
25068
32265
41370
59041
28817
52038
90985
57639
82860
62674
9729
48176
93863
93525
9513
95743
68012
66771
23209
49486
34613
98295
98772
25135
26650
38746
64414
23723
18577
98373
76491
61781
78397
16632
43269
26362
36775
79348
70289
9037
90795
80440
12572
37310
52302
7400
73258
79411
56374
8524
78653
3308
88359
26987
68701
68169
98743
19231
23316
32216
29013
53934
59989
51191
91702
20637
6182
5408
75172
24085
21295
63568
39921
8032
71126
80469
1842
49936
82928
61263
16749
69416
32937
80372
52014
27734
41678
86614
98901
70538
47038
14005
79632
30874
47012
41880
34259
29338
10422
90141
92393
20336
17666
75860
37255
75802
91151
69615
26610
94307
73828
23400
34134
94926
48476
89422
51812
65868
46908
89679
96986
23552
18315
17586
90865
10183
38354
86958
80788
55677
66867
20515
30245
19949
60900
26934
31056
13042
69470
67581
35048
81487
33273
72570
59156
95266
12485
72633
19789
92493
75810
72015
74537
80443
9447
53942
81645
10297
76058
66835
95424
61274
73895
38889
49376
36089
6775
2160
31402
71362
36003
902
93892
15266
90881
53430
16400
50899
63
57681
64421
22439
45062
68171
27593
53082
90957
81350
62679
63408
42590
89907
91140
55437
42644
88507
76805
51212
12148
29753
76245
56548
12124
6877
34749
2874
25307
22319
36347
1570
2152
64504
98734
62137
67645
25113
9791
62564
47062
77117
60616
3561
59120
94473
49367
29931
59312
34132
29978
22801
63525
96063
35425
59625
44115
18140
78952
72297
53166
29648
75877
41821
97384
39328
14640
62420
60109
73912
62262
33313
88960
36323
7178
40959
27126
83782
7626
54912
59682
3980
37892
30613
35513
37309
45
39977
90767
65474
14016
62133
27945
75600
14632
38113
15423
17652
52978
6971
6940
70811
80956
96189
5275
93904
72919
48018
61744
98292
7535
91913
47731
73128
79910
11670
48096
30070
81099
43680
31426
46797
85161
97399
83882
59507
36016
17415
77187
64543
91283
95987
29222
75470
9726
80432
4191
19985
75322
81080
76286
92797
48062
41822
97788
15320
56293
78467
37840
83596
33269
60065
93016
60909
73284
38237
58129
30950
30006
3178
5379
4785
80776
12890
38907
88574
3047
37301
932
66805
4222
84519
9059
66826
47096
4737
66049
41122
72827
28783
81891
41208
67385
39322
84820
1250
6092
62139
33203
36493
3326
57604
65441
31614
45603
64318
26361
90134
94626
79472
95306
95276
12484
70989
40000
48987
65926
47686
94258
41842
33560
82778
69651
32821
10890
67448
55876
63855
50552
25821
18928
40117
43461
55997
56432
42645
10031
56399
63374
13149
96103
92118
88155
64294
33148
67567
58183
8175
74525
58285
11322
65320
52393
34875
71902
18299
33115
20359
69640
61823
60216
46325
78554
97546
6386
28320
48471
43442
30649
77018
31341
11634
70630
52266
3394
7616
63411
33253
22310
54863
18233
6820
18571
16611
24334
3141
51412
29219
61991
35293
63106
39796
264
92231
26037
21004
70922
46488
64078
56291
83730
45708
48838
86168
95134
48745
41660
77112
95226
58377
79249
78499
20903
30256
57859
59495
85455
44796
78215
96927
30270
45800
22076
40600
89974
6909
64833
20123
83294
81234
62998
89163
35232
80692
10286
47715
19888
58246
62992
22153
24993
57048
51752
71610
80791
42278
36808
53698
56475
11816
3691
55284
88597
68076
95247
3856
48114
10234
21930
81655
49197
77526
24371
38606
11733
87799
13740
14973
12974
84660
17429
38000
66619
80305
41208
42820
92384
62249
92492
94949
72824
45283
15290
83094
38928
85909
54521
90327
70860
75957
62401
39444
78042
41324
19281
78137
1417
8201
74223
57563
98084
4477
16363
22787
98395
55935
21760
81141
54976
41871
19381
43465
83852
52106
25906
80548
28907
77427
20062
23607
34194
2869
94753
42732
24744
6890
84010
83273
74523
89445
13564
56388
10990
18479
68958
494
87147
89133
5672
91225
40211
37490
56160
76602
16255
41673
59341
84072
72145
75525
38214
33373
25815
4869
85850
1344
33800
74864
3775
41525
17581
38494
36985
11999
16085
26294
87716
18749
48151
86714
48476
73674
74017
41367
81725
49315
42363
57254
71349
50707
74267
37446
44572
94109
9982
78482
43106
6412
61850
4815
58817
77719
97867
56459
21998
47973
28767
81592
66536
38575
73117
5071
70115
8277
82136
33125
98284
23836
42332
50052
70163
72189
97868
83073
38907
84438
24108
84760
1930
38809
40216
84150
10084
79798
72983
7120
94172
49278
36907
90729
76138
93179
96781
38543
59811
95388
80334
37846
41189
7454
48225
21125
69581
47701
54075
26266
60573
7485
10366
91220
31424
51668
52649
71582
83976
80170
81069
61188
33326
87234
53814
64274
91153
93636
3910
6615
36325
85066
77113
71642
93813
62272
993
49889
34604
57136
82950
84879
59002
52293
57270
15545
77259
23113
33144
70572
45367
8137
8343
62308
98998
45539
78626
27054
18904
2431
52072
59450
6628
42689
68918
74198
91077
45566
61273
26697
4311
6196
73687
71
39565
24782
39678
31527
76974
20062
12368
24482
82019
34298
80710
41588
82003
51639
49175
66291
62381
81502
31511
43235
20750
894
92633
66578
68669
72152
80584
53321
90238
67196
41530
49348
79623
24201
86729
37819
72240
25563
87371
64492
20755
59406
24617
58282
532
51920
22782
18983
49928
78485
92055
21371
18104
25900
5319
4739
55983
22101
5350
73633
33290
7217
38091
8259
68786
92679
44333
674
96827
74060
4851
51793
2687
65524
90617
68955
15731
84804
62387
35056
78471
84784
81924
98765
90881
68507
52434
26804
40571
18154
66659
3089
89311
24688
71983
61067
7053
47448
68422
2042
42181
36855
51526
17470
13845
19725
36456
94246
73523
34512
27143
12965
86321
18828
15929
78483
57020
78963
95596
57429
11338
13904
79535
88164
64316
41406
37264
8568
53079
44267
23602
31379
27690
22046
34495
63638
71458
84378
12214
29570
23648
83301
92523
17590
60796
6668
36119
53926
70269
12600
77854
86564
4674
98223
92923
81520
53465
57230
73620
3294
69262
85520
60285
17453
29812
24913
77863
63039
90603
17540
82620
5609
5419
18213
84781
30922
82374
3417
25619
10760
32154
10417
23545
67543
1079
55883
29962
10752
8099
67523
69275
75475
35516
44566
88350
15878
43312
90974
95941
34555
13639
13219
37169
78933
72751
20233
75107
18228
11106
17382
30578
